Proyecto/MuxPc_v1/simulation/qsim/MuxPc_v1.msim.vcd
$comment
	File created using the following command:
		vcd file MuxPc_v1.msim.vcd -direction
$end
$date
	Sat Oct 20 17:19:49 2018
$end
$version
	ModelSim Version 10.1d
$end
$timescale
	1ps
$end
$scope module MuxPc_v1_vlg_vec_tst $end
$var reg 8 ! Adder [7:0] $end
$var reg 1 " clk $end
$var reg 8 # Jump [7:0] $end
$var reg 1 $ PcSource $end
$var wire 1 % MuxOut [7] $end
$var wire 1 & MuxOut [6] $end
$var wire 1 ' MuxOut [5] $end
$var wire 1 ( MuxOut [4] $end
$var wire 1 ) MuxOut [3] $end
$var wire 1 * MuxOut [2] $end
$var wire 1 + MuxOut [1] $end
$var wire 1 , MuxOut [0] $end
$var wire 1 - sampler $end
$scope module i1 $end
$var wire 1 . gnd $end
$var wire 1 / vcc $end
$var wire 1 0 unknown $end
$var tri1 1 1 devclrn $end
$var tri1 1 2 devpor $end
$var tri1 1 3 devoe $end
$var wire 1 4 clk~combout $end
$var wire 1 5 clk~clkctrl_outclk $end
$var wire 1 6 PcSource~combout $end
$var wire 1 7 temp~0_combout $end
$var wire 1 8 temp~1_combout $end
$var wire 1 9 temp~2_combout $end
$var wire 1 : temp~3_combout $end
$var wire 1 ; temp~4_combout $end
$var wire 1 < temp~5_combout $end
$var wire 1 = temp~6_combout $end
$var wire 1 > temp~7_combout $end
$var wire 1 ? Adder~combout [7] $end
$var wire 1 @ Adder~combout [6] $end
$var wire 1 A Adder~combout [5] $end
$var wire 1 B Adder~combout [4] $end
$var wire 1 C Adder~combout [3] $end
$var wire 1 D Adder~combout [2] $end
$var wire 1 E Adder~combout [1] $end
$var wire 1 F Adder~combout [0] $end
$var wire 1 G Jump~combout [7] $end
$var wire 1 H Jump~combout [6] $end
$var wire 1 I Jump~combout [5] $end
$var wire 1 J Jump~combout [4] $end
$var wire 1 K Jump~combout [3] $end
$var wire 1 L Jump~combout [2] $end
$var wire 1 M Jump~combout [1] $end
$var wire 1 N Jump~combout [0] $end
$var wire 1 O temp [7] $end
$var wire 1 P temp [6] $end
$var wire 1 Q temp [5] $end
$var wire 1 R temp [4] $end
$var wire 1 S temp [3] $end
$var wire 1 T temp [2] $end
$var wire 1 U temp [1] $end
$var wire 1 V temp [0] $end
$upscope $end
$upscope $end
$enddefinitions $end
#0
$dumpvars
b1000 !
0"
b11 #
0$
0,
0+
0*
0)
0(
0'
0&
0%
x-
0.
1/
x0
11
12
13
04
05
06
17
18
09
0:
0;
0<
0=
0>
0F
0E
0D
1C
0B
0A
0@
0?
1N
1M
0L
0K
0J
0I
0H
0G
0V
0U
0T
0S
0R
0Q
0P
0O
$end
#40000
1"
14
15
0-
1U
1V
1+
1,
#80000
1$
0"
16
04
05
1-
1:
08
07
#120000
1"
14
15
0-
1S
0U
0V
1)
0+
0,
#160000
0$
0"
06
04
05
1-
0:
18
17
#200000
1"
14
15
0-
0S
1U
1V
0)
1+
1,
#240000
1$
0"
16
04
05
1-
1:
08
07
#280000
1"
14
15
0-
1S
0U
0V
1)
0+
0,
#320000
0$
0"
06
04
05
1-
0:
18
17
#360000
1"
14
15
0-
0S
1U
1V
0)
1+
1,
#400000
1$
0"
16
04
05
1-
1:
08
07
#440000
1"
14
15
0-
1S
0U
0V
1)
0+
0,
#480000
0$
0"
06
04
05
1-
0:
18
17
#520000
1"
14
15
0-
0S
1U
1V
0)
1+
1,
#560000
1$
0"
16
04
05
1-
1:
08
07
#600000
1"
14
15
0-
1S
0U
0V
1)
0+
0,
#640000
0$
0"
06
04
05
1-
0:
18
17
#680000
1"
14
15
0-
0S
1U
1V
0)
1+
1,
#720000
1$
0"
16
04
05
1-
1:
08
07
#760000
1"
14
15
0-
1S
0U
0V
1)
0+
0,
#800000
0$
0"
06
04
05
1-
0:
18
17
#840000
1"
14
15
0-
0S
1U
1V
0)
1+
1,
#880000
1$
0"
16
04
05
1-
1:
08
07
#920000
1"
14
15
0-
1S
0U
0V
1)
0+
0,
#960000
0$
0"
06
04
05
1-
0:
18
17
